…
Now do with a function instead:

``` r
source("source/nsduh_table_format.R")

drug_import(html=nsduh_html, table=1, drug_name = "marj")
```

    ## # A tibble: 56 × 12
    ##    State `12+(2013-2014)` `12+(2014-2015)` `12-17(2013-2014)` `12-17(2014-2015)`
    ##    <chr> <chr>            <chr>            <chr>              <chr>             
    ##  1 Tota… 12.90a           13.36            13.28b             12.86             
    ##  2 Nort… 13.88a           14.66            13.98              13.51             
    ##  3 Midw… 12.40b           12.76            12.45              12.33             
    ##  4 South 11.24a           11.64            12.02              11.88             
    ##  5 West  15.27            15.62            15.53a             14.43             
    ##  6 Alab… 9.98             9.60             9.90               9.71              
    ##  7 Alas… 19.60a           21.92            17.30              18.44             
    ##  8 Ariz… 13.69            13.12            15.12              13.45             
    ##  9 Arka… 11.37            11.59            12.79              12.14             
    ## 10 Cali… 14.49            15.25            15.03              14.11             
    ## # ℹ 46 more rows
    ## # ℹ 7 more variables: `18-25(2013-2014)` <chr>, `18-25(2014-2015)` <chr>,
    ## #   `26+(2013-2014)` <chr>, `26+(2014-2015)` <chr>, `18+(2013-2014)` <chr>,
    ## #   `18+(2014-2015)` <chr>, drug <chr>

``` r
drug_import(nsduh_html, 4, "cocaine")
```

    ## # A tibble: 56 × 12
    ##    State `12+(2013-2014)` `12+(2014-2015)` `12-17(2013-2014)` `12-17(2014-2015)`
    ##    <chr> <chr>            <chr>            <chr>              <chr>             
    ##  1 Tota… 1.66a            1.76             0.60               0.64              
    ##  2 Nort… 1.94a            2.18             0.60               0.66              
    ##  3 Midw… 1.37             1.43             0.48               0.54              
    ##  4 South 1.45b            1.56             0.53               0.57              
    ##  5 West  2.03             2.05             0.82               0.85              
    ##  6 Alab… 1.23             1.22             0.42               0.41              
    ##  7 Alas… 1.54a            2.00             0.51               0.65              
    ##  8 Ariz… 2.25             2.29             1.01               0.85              
    ##  9 Arka… 0.93             1.07             0.41               0.48              
    ## 10 Cali… 2.14             2.16             0.89               0.94              
    ## # ℹ 46 more rows
    ## # ℹ 7 more variables: `18-25(2013-2014)` <chr>, `18-25(2014-2015)` <chr>,
    ## #   `26+(2013-2014)` <chr>, `26+(2014-2015)` <chr>, `18+(2013-2014)` <chr>,
    ## #   `18+(2014-2015)` <chr>, drug <chr>

``` r
drug_import(nsduh_html, 5, "marj")
```

    ## # A tibble: 56 × 12
    ##    State `12+(2013-2014)` `12+(2014-2015)` `12-17(2013-2014)` `12-17(2014-2015)`
    ##    <chr> <chr>            <chr>            <chr>              <chr>             
    ##  1 Tota… 0.30             0.33             0.12               0.10              
    ##  2 Nort… 0.43a            0.54             0.13               0.13              
    ##  3 Midw… 0.30             0.31             0.11               0.10              
    ##  4 South 0.27             0.26             0.12               0.08              
    ##  5 West  0.25             0.29             0.13               0.11              
    ##  6 Alab… 0.22             0.27             0.10               0.08              
    ##  7 Alas… 0.70a            1.23             0.11               0.08              
    ##  8 Ariz… 0.32a            0.55             0.17               0.20              
    ##  9 Arka… 0.19             0.17             0.10               0.07              
    ## 10 Cali… 0.20             0.20             0.13               0.09              
    ## # ℹ 46 more rows
    ## # ℹ 7 more variables: `18-25(2013-2014)` <chr>, `18-25(2014-2015)` <chr>,
    ## #   `26+(2013-2014)` <chr>, `26+(2014-2015)` <chr>, `18+(2013-2014)` <chr>,
    ## #   `18+(2014-2015)` <chr>, drug <chr>

``` r
bind_rows(
  drug_import(html=nsduh_html, table=1, drug_name = "marj"),
  drug_import(nsduh_html, 4, "cocaine"),
  drug_import(nsduh_html, 5, "marj")
)
```

    ## # A tibble: 168 × 12
    ##    State `12+(2013-2014)` `12+(2014-2015)` `12-17(2013-2014)` `12-17(2014-2015)`
    ##    <chr> <chr>            <chr>            <chr>              <chr>             
    ##  1 Tota… 12.90a           13.36            13.28b             12.86             
    ##  2 Nort… 13.88a           14.66            13.98              13.51             
    ##  3 Midw… 12.40b           12.76            12.45              12.33             
    ##  4 South 11.24a           11.64            12.02              11.88             
    ##  5 West  15.27            15.62            15.53a             14.43             
    ##  6 Alab… 9.98             9.60             9.90               9.71              
    ##  7 Alas… 19.60a           21.92            17.30              18.44             
    ##  8 Ariz… 13.69            13.12            15.12              13.45             
    ##  9 Arka… 11.37            11.59            12.79              12.14             
    ## 10 Cali… 14.49            15.25            15.03              14.11             
    ## # ℹ 158 more rows
    ## # ℹ 7 more variables: `18-25(2013-2014)` <chr>, `18-25(2014-2015)` <chr>,
    ## #   `26+(2013-2014)` <chr>, `26+(2014-2015)` <chr>, `18+(2013-2014)` <chr>,
    ## #   `18+(2014-2015)` <chr>, drug <chr>
